"","Table Ⅰ  Hydraulic Cement – World Leading Producers (million metric tons)[1]","Table Ⅰ  Hydraulic Cement – World Leading Producers (million metric tons)[1]","Table Ⅰ  Hydraulic Cement – World Leading Producers (million metric tons)[1]","Table Ⅰ  Hydraulic Cement – World Leading Producers (million metric tons)[1]","Table Ⅰ  Hydraulic Cement – World Leading Producers (million metric tons)[1]","Table Ⅰ  Hydraulic Cement – World Leading Producers (million metric tons)[1]","Table Ⅰ  Hydraulic Cement – World Leading Producers (million metric tons)[1]","Table Ⅰ  Hydraulic Cement – World Leading Producers (million metric tons)[1]","Table Ⅰ  Hydraulic Cement – World Leading Producers (million metric tons)[1]","Table Ⅰ  Hydraulic Cement – World Leading Producers (million metric tons)[1]","Table Ⅰ  Hydraulic Cement – World Leading Producers (million metric tons)[1]","Table Ⅰ  Hydraulic Cement – World Leading Producers (million metric tons)[1]","Table Ⅰ  Hydraulic Cement – World Leading Producers (million metric tons)[1]","Table Ⅰ  Hydraulic Cement – World Leading Producers (million metric tons)[1]","Table Ⅰ  Hydraulic Cement – World Leading Producers (million metric tons)[1]","Table Ⅰ  Hydraulic Cement – World Leading Producers (million metric tons)[1]","Table Ⅰ  Hydraulic Cement – World Leading Producers (million metric tons)[1]"
"1","Country","2014","2013","2012","2011","2010","2009","2008","2007","2006","2005","2004","2003","2002","2001","2000",NA
"2","Brazil","72","70","69","64","59","52","52","46","40","37","38","40","38","40","39",NA
"3","China PRC","2,500","2,420","2,210","2,100","1,880","1,630","1,390","1,350","1,200","1,040","934","813","705","627","583",NA
"4","Egypt","50","50","46","44","48","47","40","38","29","29","28","29","23","25","24",NA
"5","France","","","","","","","21","22","21","21","21","20","20","20","20",NA
"6","Germany","31","31","32","34","30","30","34","33","33","31","32","30","30","28","38",NA
"7","India","280","280","270","240","210","205","177","170","155","145","125","110","100","100","95",NA
"8","Indonesia","60","56","32","30","22","40","37","36","34","37","36","35","33","31","28",NA
"9","Iran","75","72","70","61","50","50","44","36","33","33","30","30","30","27","20",NA
"10","Italy","22","22","33","33","36","36","43","48","43","46","38","38","40","40","36",NA
"11","Japan","58","57","51","51","52","55","63","68","70","70","67","71","72","77","81",NA
"12","Korea ROK","48","47","48","48","47","50","54","57","55","51","54","59","56","52","51",NA
"13","Mexico","35","35","35","35","35","35","48","41","41","36","35","32","31","30","32",NA
"14","Pakistan","32","31","32","32","30","32","39","26","","","","","","","",NA
"15","Russia","69","66","62","56","50","44","54","60","55","49","43","41","38","35","32",NA
"16","Saudi Arabia","63","57","50","48","42","40","32","30","27","26","23","23","21","21","21",NA
"17","Spain","","","","22","24","50","42","54","54","50","47","42","43","41","30",NA
"18","Taiwan","","","","","","","","","","","","","","","19",NA
"19","Thailand","42","42","37","37","37","31","36","36","39","38","36","33","32","28","32",NA
"20","Turkey","75","71","64","63","63","54","51","50","48","43","38","33","33","30","36",NA
"21","United States A","83","77","75","69","67","65","88","97","100","101","99","94","91","91","90",NA
"22","Vietnam","60","58","60","59","50","48","36","36","32","29","25","","","","",NA
"23","Rest of world","525","536","524","470","480","466","459","437","442","400","381","380","360","361","330",NA
"24","Whole World","4,180","4,080","3,800","3,600","3,310","3,060","2,840","2,770","2,550","2,310","2,130","1,950","1,800","1,700","1,600",NA
