body,year,term,members,papers,
TCR,2019,2,1,45,
Qtype,5,4,3,2,1
attend,32,10,2,1,0
voice,12,11,14,7,1
engage,15,12,15,2,1
hear,26,16,3,0,0
see,19,15,9,2,0
time,35,7,2,0,0
check,28,11,5,0,0
enthuse,37,7,1,0,0
comprehend,20,17,8,0,0
use,15,18,11,1,0
satisfy,15,19,11,0,0
